%YAML 1.1
%TAG !u! tag:unity3d.com,2011:
--- !u!221 &22100000
AnimatorOverrideController:
  m_ObjectHideFlags: 0
  m_CorrespondingSourceObject: {fileID: 0}
  m_PrefabInstance: {fileID: 0}
  m_PrefabAsset: {fileID: 0}
  m_Name: GS Attack 1
  m_Controller: {fileID: 9100000, guid: d0e74750677787e4588be7a9c13720af, type: 2}
  m_Clips:
  - m_OriginalClip: {fileID: -203655887218126122, guid: de3fd6c25028d01468b4a275767cfb70, type: 3}
    m_OverrideClip: {fileID: -203655887218126122, guid: de3fd6c25028d01468b4a275767cfb70, type: 3}
  - m_OriginalClip: {fileID: -203655887218126122, guid: 1d812a2786f494d4eb12d3955e6bd5af, type: 3}
    m_OverrideClip: {fileID: -203655887218126122, guid: 1d812a2786f494d4eb12d3955e6bd5af, type: 3}
  - m_OriginalClip: {fileID: -203655887218126122, guid: cfd3b9cc11429a34aa0ff8c5dd8f405d, type: 3}
    m_OverrideClip: {fileID: -203655887218126122, guid: cfd3b9cc11429a34aa0ff8c5dd8f405d, type: 3}
