%YAML 1.1
%TAG !u! tag:unity3d.com,2011:
--- !u!114 &11400000
MonoBehaviour:
  m_ObjectHideFlags: 0
  m_CorrespondingSourceObject: {fileID: 0}
  m_PrefabInstance: {fileID: 0}
  m_PrefabAsset: {fileID: 0}
  m_GameObject: {fileID: 0}
  m_Enabled: 1
  m_EditorHideFlags: 0
  m_Script: {fileID: 11500000, guid: 7c117b5a086c7674795d596084c90ecb, type: 3}
  m_Name: Axe Attack 3
  m_EditorClassIdentifier: 
  AnimatorOverrideController: {fileID: 22100000, guid: 3d2d3d9439010974388eb5d1765b105e, type: 2}
  MoveCooldown: 0.75
  StartOverride: 0
  SpeedModifier: 2
  AttackDamage: 2
